{
   "type": "service_account",
   "project_id": "v2-project-267814",
   "private_key_id": "90de22e44a27ac5e3e11f7eaf255e74b6e551a73",
   "private_key": "-----BEGIN PRIVATE KEY-----\nMIIEvgIBADANBgkqhkiG9w0BAQEFAASCBKgwggSkAgEAAoIBAQCk+WqdZ/uW614q\nIZDwEHnRKGPIvk4ZbmYT0p7AkP6PO5LrijiF44rusqWmTKB/zhBW4KcpOFb1bz8W\n03OXwb5yKqYFHa6JtNHJpUKJ3bihQnbKelHjhFiZ6iYkiUYvgpGlhI50XbnBspUq\nq4fuayGYndVjVSY+hOx8mr62xwkoMTTfv9/9h6/PzajrQmWCwdva7BfdrwfNXTGU\nhUp90g4SoHZNUVP1LWCMBhkMI9ruMYSw8233os3qdU64PWw/6duNno6/sWUCefkP\nBNAyzhu7g8spoDIweYoa1zB9BT9qZYkss/6O1vfSqNEUfyvwF/WkSyzBLV0Tni1T\n8oS9Tye1AgMBAAECggEANrpbKP6u0sEgCt/5wfnlP4Kjn5uqMvuRt2++pGk1WXTM\n54CCAcCbfVYcZ8+xytQkTX3XVnBPQLp39m2NQkHOmPcW/kl7dkla8wb0zOGV90Ei\nQUdU1SI5dk3b+3DirK4m/P69d1MEZYKFw5MF1A0MJyHtATflKQZVoXyAWggrPH6V\nH3YSMWEpgC2guD/R76MHeVg8h5YROpkdV1IpMpPysVOveXCqfsiogz3UfA/5SBx7\nFqCtRO7AvHXic43yw1caJmqgwLnUrT8cfTDHzB62iBWFphCarlP4XuGnVPAB56st\nBJ7bNDB8HOpmxDTFvuf7snka3YUMObVnzRu1wmdJXQKBgQDnCLZyTf8RPK0MJHV/\n/4+0GSKU/dlA8/9mygzS+9qdydMrOtoUJPTI5Y3GRBc0iXiZSxwOL7YHmNHWcI3k\ni7Eej+BEj/0gmH8klQLek9F3zmaI7IRgXWXW9I4mkUmti7S0Vzs4FqSCP6c0awdN\nWBunT94XK63njCkM6cphGHtNowKBgQC2zTzdnQful/EdAfOZRp0wShkKfS1cfVQ7\nSLRNG+k5F37fyesgr9CCgOphDdKVXaX7pWHES/4umH49BerrXTTApahBvVCoawS8\nYaRYN7nbUXLFl/Mg1eItgVRIBuTCtF7YiJssDUKldVnPc76RLUusj0SfGMEzrKu7\npmpH6NPaxwKBgQCEGRc4hCAzWt4W80G7zgP8leKQDhUKbni57Q0oFZkKXzu+nAfV\nPMw5kgdeNdCO2Yt7GtcPxXfvIBHa6sA2zSiYsOsqSKoS2R7Za9oYKay7M+isoY+P\nCdgQ8APXSXs3H4pTEw1pJIkrb/nKnuet8ZLeN2xlEzR8EEfoekSc/8KAwQKBgDkK\nfe2hLHJ1ExW8ICk58Z654Gp3eQodSYVeQHS3OuVHwZ1PQoFmmye91mUGjSlymXKW\nvpUkKWKczvd3u0BKS0W563DoBB0pl8a4qTGl4ebf2XJy4bjjRLpyWrxG+mcPJXFn\n3xO154/9uFKViWd/vNdRtVX3wYHAZa4eVZeuvTzNAoGBANAevli75ZS5APBqWaB0\nyUU/mQU3/9YIdeAfcTqrXv1x2/rNqldscvYq5SmeBB/jUpMV4v2hDuRwr9rAPA9k\nUy2APnvj9dIGRhV9kVtWfaNSB5ztBhKvzE03QG5xpgfwOy0EJO64j9EQT/i10NJM\nBgpEIQALUqG0TvqoriIuinHw\n-----END PRIVATE KEY-----\n",
   "client_email": "fastlane-android@v2-project-267814.iam.gserviceaccount.com",
   "client_id": "103954414217839019242",
   "auth_uri": "https://accounts.google.com/o/oauth2/auth",
   "token_uri": "https://oauth2.googleapis.com/token",
   "auth_provider_x509_cert_url": "https://www.googleapis.com/oauth2/v1/certs",
   "client_x509_cert_url": "https://www.googleapis.com/robot/v1/metadata/x509/fastlane-android%40v2-project-267814.iam.gserviceaccount.com"
 }